product,stock
pain,109
E849,43
parfums,117
chocolat noir,29
crème épaisse,3
zestes argrumes,46
endive,57
chocolat noir,90
oeufs,70
acide tartrique,55
colorant vert,57
miel,95
Fruits confits mélangés,93
Noix hachées,105
oeufs,88
vanille liquide,106
cannelle,113
acide tartrique,91
écorces orange,3
Beurre,54
colorant vert,87
Rhum,43
colorant bleu,37
acide tartrique,88
Farine,25
farine T55 seigle,70
anti-vomitif,73
Pâte de pistache,18
Bicarbonate de soude,23
citron,23
Cyanure,91
Sucre glace,52
détergent,48
Pâte de pistache,21
chapelure,101
sel,101
Cassonade,26
crème de tartre,43
Cyanure,102
Bicarbonate de soude,46
jaunes d'œufs,113
Bicarbonate de soude,95
vanille,43
crème épaisse,19
chocolat noir,3
Cyanure,49
oeuf,100
vanille liquide,52
pain,75
chapelure,77
Citron,28
Cassonade,20
chapelure,116
strychnine,84
détergent,43
crème de tartre,40
colorant bleu,14
jaunes d'œufs,115
anti-vomitif,63
Beurre,33
écorces orange,29
E7555,50
crème épaisse,71
Mélange 5 épices,97
Noix,94
Farine,75
Amande poudre,108
Rhum,31
endive,34
Miel,96
Noix hachées,53
Trimoline,38
chapelure,77
vanille liquide,59
Pépites chocolat,37
fécule,67
Noix,70
Bicarbonate de soude,99
acide tartrique,29
Mélange 5 épices,80
Fruits confits mélangés,67
Bicarbonate de soude,102
crème épaisse,48
endive,53
Cannelle poudre,6
jaunes d'œufs,72
Mélange 5 épices,25
E849,79
Farine,39
Sucre glace,7
Citron,74
Sucre glace,111
Noix hachées,108
blancs d'œufs liquides,66
chapelure,114
colorant rouge,39
jambon,10
colorant bleu,49
Sucre glace,111
E827-B,45
